Methods in Corpus Linguistics - Markdown and inline code
…
The output of gt should look something like this (but don’t print it in Quarto!):

gt

# A tibble: 100 × 7
   variant comp_length register variant_num source    fit1    fit2
   <fct>         <dbl> <fct>          <dbl> <chr>    <dbl>   <dbl>
 1 gonna          6.72 formal             0 q      0.00791 0.0496 
 2 gonna          5.06 informal           0 x      0.348   0.137  
 3 gonna          5.28 informal           0 z      0.233   0.0814 
 4 gonna          4.84 informal           0 i      0.480   0.221  
 5 gonna          5.74 informal           0 m      0.0881  0.0260 
 6 gonna          3.68 informal           0 f      0.946   0.861  
 7 gonna          5.15 informal           0 j      0.297   0.111  
 8 gonna          6.22 informal           0 p      0.0274  0.00727
 9 gonna          6.60 informal           0 p      0.0107  0.00269
10 gonna          6.19 formal             0 c      0.0294  0.174  
# … with 90 more rows
…
