Methods in Corpus Linguistics - Simple register analysis (multidimensional analysis) of brown TEI
…
d <- as_tibble(tei_fnames)

4.1 Read from XML

First, we will read the files by applying read_xml() to each element of the filename column in d via map(). This results in a column that is a list of xml_document objects. d$xml[[1]] is the same as read_xml(d$filename[[1]]).

Example

map(some_list, tolower) returns a list in which the first element is tolower(some_list[[1]]), the second is tolower(some_list[[2]]), etc.

d <- d %>% mutate(xml = map(filename, read_xml))
d %>% mutate(filename = short_names(filename)) # just hiding the path when printing

# A tibble: 500 × 2
   filename xml       
   <fnames> <list>    
 1 a01      <xml_dcmn>
 2 a02      <xml_dcmn>
 3 a03      <xml_dcmn>
 4 a04      <xml_dcmn>
 5 a05      <xml_dcmn>
 6 a06      <xml_dcmn>
 7 a07      <xml_dcmn>
 8 a08      <xml_dcmn>
 9 a09      <xml_dcmn>
10 a10      <xml_dcmn>
# … with 490 more rows
…
This notation is useful when the elements in the lists do not correspond to the positional arguments of the function.

d <- d %>% 
  select(-filename) %>%
  mutate(
    ns = map(xml, xml_ns),
    token_tags = map2(xml, ns, ~ find_xpath(.x, "//d1:w | //d1:mw | //d1:c", namespaces = .y)),
    word_tags = map2(xml, ns, ~ find_xpath(.x, "//d1:w", namespaces = .y)),
    mw_tags = map2(xml, ns, ~ find_xpath(.x, "//d1:mw", namespaces = .y)),
    punctuation_tags = map2(xml, ns, ~ find_xpath(.x, "//d1:c", namespaces = .y))
    )
d

# A tibble: 500 × 6
   xml        ns             token_tags word_tags  mw_tags    punctuation_tags
   <list>     <list>         <list>     <list>     <list>     <list>          
 1 <xml_dcmn> <xml_nmsp [1]> <xml_ndst> <xml_ndst> <xml_ndst> <xml_ndst>      
 2 <xml_dcmn> <xml_nmsp [1]> <xml_ndst> <xml_ndst> <xml_ndst> <xml_ndst>      
 3 <xml_dcmn> <xml_nmsp [1]> <xml_ndst> <xml_ndst> <xml_ndst> <xml_ndst>      
 4 <xml_dcmn> <xml_nmsp [1]> <xml_ndst> <xml_ndst> <xml_ndst> <xml_ndst>      
 5 <xml_dcmn> <xml_nmsp [1]> <xml_ndst> <xml_ndst> <xml_ndst> <xml_ndst>      
 6 <xml_dcmn> <xml_nmsp [1]> <xml_ndst> <xml_ndst> <xml_ndst> <xml_ndst>      
 7 <xml_dcmn> <xml_nmsp [1]> <xml_ndst> <xml_ndst> <xml_ndst> <xml_ndst>      
 8 <xml_dcmn> <xml_nmsp [1]> <xml_ndst> <xml_ndst> <xml_ndst> <xml_ndst>      
 9 <xml_dcmn> <xml_nmsp [1]> <xml_ndst> <xml_ndst> <xml_ndst> <xml_ndst>      
10 <xml_dcmn> <xml_nmsp [1]> <xml_ndst> <xml_ndst> <xml_ndst> <xml_ndst>      
# … with 490 more rows
…
d <- d %>%
  select(-xml, -ns) %>% 
  mutate(
    all_tokens = map(token_tags, ~ xml_text(.x) %>% tolower() %>% cleanup_spaces() %>% as_tokens()),
    words = map(word_tags, ~ xml_text(.x) %>% tolower() %>% cleanup_spaces() %>% as_tokens())
  )
d

# A tibble: 500 × 6
   token_tags word_tags  mw_tags    punctuation_tags all_tokens       words   
   <list>     <list>     <list>     <list>           <list>           <list>  
 1 <xml_ndst> <xml_ndst> <xml_ndst> <xml_ndst>       <tokens [2,242]> <tokens>
 2 <xml_ndst> <xml_ndst> <xml_ndst> <xml_ndst>       <tokens [2,277]> <tokens>
 3 <xml_ndst> <xml_ndst> <xml_ndst> <xml_ndst>       <tokens [2,275]> <tokens>
 4 <xml_ndst> <xml_ndst> <xml_ndst> <xml_ndst>       <tokens [2,216]> <tokens>
 5 <xml_ndst> <xml_ndst> <xml_ndst> <xml_ndst>       <tokens [2,244]> <tokens>
 6 <xml_ndst> <xml_ndst> <xml_ndst> <xml_ndst>       <tokens [2,263]> <tokens>
 7 <xml_ndst> <xml_ndst> <xml_ndst> <xml_ndst>       <tokens [2,270]> <tokens>
 8 <xml_ndst> <xml_ndst> <xml_ndst> <xml_ndst>       <tokens [2,187]> <tokens>
 9 <xml_ndst> <xml_ndst> <xml_ndst> <xml_ndst>       <tokens [2,234]> <tokens>
10 <xml_ndst> <xml_ndst> <xml_ndst> <xml_ndst>       <tokens [2,282]> <tokens>
# … with 490 more rows
…
map(some_list, tolower) is the same as map(some_list, ~ tolower(.x)) and the same as map(some_list, function(list_element) { tolower(list_element) }).

d <- d %>%
  mutate(
    pos_codes = map(token_tags, function(toks) {
      most_pos <- xml_attr(toks, "type")
      mw_pos <- xml_attr(toks, "pos")
      most_pos[is.na(most_pos)] <- mw_pos[!is.na(mw_pos)]
      as_tokens(most_pos) # return value
      })
    )
d

# A tibble: 500 × 7
   token_tags word_tags  mw_tags    punctuation_tags all_tok…¹ words    pos_co…²
   <list>     <list>     <list>     <list>           <list>    <list>   <list>  
 1 <xml_ndst> <xml_ndst> <xml_ndst> <xml_ndst>       <tokens>  <tokens> <tokens>
 2 <xml_ndst> <xml_ndst> <xml_ndst> <xml_ndst>       <tokens>  <tokens> <tokens>
 3 <xml_ndst> <xml_ndst> <xml_ndst> <xml_ndst>       <tokens>  <tokens> <tokens>
 4 <xml_ndst> <xml_ndst> <xml_ndst> <xml_ndst>       <tokens>  <tokens> <tokens>
 5 <xml_ndst> <xml_ndst> <xml_ndst> <xml_ndst>       <tokens>  <tokens> <tokens>
 6 <xml_ndst> <xml_ndst> <xml_ndst> <xml_ndst>       <tokens>  <tokens> <tokens>
 7 <xml_ndst> <xml_ndst> <xml_ndst> <xml_ndst>       <tokens>  <tokens> <tokens>
 8 <xml_ndst> <xml_ndst> <xml_ndst> <xml_ndst>       <tokens>  <tokens> <tokens>
 9 <xml_ndst> <xml_ndst> <xml_ndst> <xml_ndst>       <tokens>  <tokens> <tokens>
10 <xml_ndst> <xml_ndst> <xml_ndst> <xml_ndst>       <tokens>  <tokens> <tokens>
# … with 490 more rows, and abbreviated variable names ¹​all_tokens, ²​pos_codes
…
The result of this code is a vector of bigrams, i.e. each element corresponds to one element of x along with its following element.

d <- d %>% 
  select(-token_tags, -word_tags) %>% 
  mutate(
    bigrams = map(all_tokens, ~ paste(.x, c(.x[-1], "EOF"), sep = "|") %>% as_tokens()),
    pos_bigrams = map(pos_codes, ~ paste(.x, c(.x[-1], "EOF"), sep = "|") %>% as_tokens())
  )
d

# A tibble: 500 × 7
   mw_tags    punctuation_tags all_tokens words    pos_codes bigrams  pos_bigr…¹
   <list>     <list>           <list>     <list>   <list>    <list>   <list>    
 1 <xml_ndst> <xml_ndst>       <tokens>   <tokens> <tokens>  <tokens> <tokens>  
 2 <xml_ndst> <xml_ndst>       <tokens>   <tokens> <tokens>  <tokens> <tokens>  
 3 <xml_ndst> <xml_ndst>       <tokens>   <tokens> <tokens>  <tokens> <tokens>  
 4 <xml_ndst> <xml_ndst>       <tokens>   <tokens> <tokens>  <tokens> <tokens>  
 5 <xml_ndst> <xml_ndst>       <tokens>   <tokens> <tokens>  <tokens> <tokens>  
 6 <xml_ndst> <xml_ndst>       <tokens>   <tokens> <tokens>  <tokens> <tokens>  
 7 <xml_ndst> <xml_ndst>       <tokens>   <tokens> <tokens>  <tokens> <tokens>  
 8 <xml_ndst> <xml_ndst>       <tokens>   <tokens> <tokens>  <tokens> <tokens>  
 9 <xml_ndst> <xml_ndst>       <tokens>   <tokens> <tokens>  <tokens> <tokens>  
10 <xml_ndst> <xml_ndst>       <tokens>   <tokens> <tokens>  <tokens> <tokens>  
# … with 490 more rows, and abbreviated variable name ¹​pos_bigrams
…
Once we have the n_tok column, we can create other numeric columns with map_dbl(), applying different functions that compute quantities, and then divide them by the contents of n_tok to obtain proportions. The number of types can be obtained by calling n_types() on the elements of the all_tokens, bigrams and pos_bigrams columns; the number of mw and c tags can be obtained by applying length to the elements of the mw_tags and punctuation_tags columns. For mw elements, which are very infrequent, we will multiply the resulting proportion by 10 000. The mean word length can be be obtained by applying sum(nchar(x))/n_tokens(x) to each element of the words columns: we count the number of characters of each element, sum them and then divide them by the number of elements.

d <- d %>% 
  mutate(
    n_tok = map_dbl(all_tokens, n_tokens),
    ttr = map_dbl(all_tokens, n_types)/n_tok,
    p_bigr = map_dbl(bigrams, n_types) / n_tok,
    p_pobi = map_dbl(pos_bigrams, n_types) / n_tok,
    p_mw = map_dbl(mw_tags, length) / n_tok * 10000,
    p_c = map_dbl(punctuation_tags, length) / n_tok,
    word_len = map_dbl(words, ~ sum(nchar(.x))/n_tokens(.x))
  )
d %>% select(all_tokens, n_tok, ttr, starts_with("p_"), word_len)

# A tibble: 500 × 8
   all_tokens       n_tok   ttr p_bigr p_pobi  p_mw    p_c word_len
   <list>           <dbl> <dbl>  <dbl>  <dbl> <dbl>  <dbl>    <dbl>
 1 <tokens [2,242]>  2242 0.357  0.824  0.207 13.4  0.113      4.99
 2 <tokens [2,277]>  2277 0.381  0.836  0.185 17.6  0.118      4.95
 3 <tokens [2,275]>  2275 0.340  0.808  0.187 17.6  0.110      4.88
 4 <tokens [2,216]>  2216 0.383  0.840  0.226  4.51 0.0884     5.19
 5 <tokens [2,244]>  2244 0.320  0.765  0.206  0    0.0936     4.77
 6 <tokens [2,263]>  2263 0.350  0.813  0.202 53.0  0.114      4.89
 7 <tokens [2,270]>  2270 0.370  0.828  0.202 17.6  0.105      5.13
 8 <tokens [2,187]>  2187 0.356  0.810  0.212  4.57 0.0841     4.91
 9 <tokens [2,234]>  2234 0.379  0.823  0.179 17.9  0.0971     4.94
10 <tokens [2,282]>  2282 0.368  0.832  0.216  4.38 0.120      4.82
# … with 490 more rows
…
n_tokens(first_tokens[re("..+(tion|ment|ness|ity)$")]) / d$n_tok[[1]] * 10000

[1] 357

The code below applies such workflow to the all_tokens column, obtaining the proportion of tokens that are nominalizations in each of the files, and similar instructions to pos_codes, extracting the proportion of tokens that are nouns in each file.

d <- d %>% 
  mutate(
    p_nomin = map_dbl(all_tokens, ~n_tokens(.x[re("..+(tion|ment|ness|ity)$")])) / n_tok * 10000,
    p_noun = map_dbl(pos_codes, ~ n_tokens(.x[re("NN")])) / n_tok
  )
d %>% select(all_tokens, pos_codes, p_nomin, p_noun)

# A tibble: 500 × 4
   all_tokens       pos_codes        p_nomin p_noun
   <list>           <list>             <dbl>  <dbl>
 1 <tokens [2,242]> <tokens [2,242]>    357.  0.244
 2 <tokens [2,277]> <tokens [2,277]>    211.  0.250
 3 <tokens [2,275]> <tokens [2,275]>    224.  0.256
 4 <tokens [2,216]> <tokens [2,216]>    370.  0.225
 5 <tokens [2,244]> <tokens [2,244]>    241.  0.223
 6 <tokens [2,263]> <tokens [2,263]>    305.  0.226
 7 <tokens [2,270]> <tokens [2,270]>    304.  0.224
 8 <tokens [2,187]> <tokens [2,187]>    251.  0.220
 9 <tokens [2,234]> <tokens [2,234]>    255.  0.269
10 <tokens [2,282]> <tokens [2,282]>    153.  0.208
# … with 490 more rows
…
# A tibble: 1 × 5
  p_ppss p_adj p_neg p_adv p_qual
   <dbl> <dbl> <dbl> <dbl>  <dbl>
1   35.7  464.  13.4  205.   26.8

We can then apply our custom function pos_proportions to each element pair made from an item of pos_codes and one of n_tok using map2(), which will create a column of tibbles. Afterwards, unnest() turns the columns of those mini tibbles into columns of our dataframe.

d <- d %>% mutate(pos_prop = map2(pos_codes, n_tok, pos_proportions))
d %>% select(pos_codes, n_tok, pos_prop)

# A tibble: 500 × 3
   pos_codes        n_tok pos_prop        
   <list>           <dbl> <list>          
 1 <tokens [2,242]>  2242 <tibble [1 × 5]>
 2 <tokens [2,277]>  2277 <tibble [1 × 5]>
 3 <tokens [2,275]>  2275 <tibble [1 × 5]>
 4 <tokens [2,216]>  2216 <tibble [1 × 5]>
 5 <tokens [2,244]>  2244 <tibble [1 × 5]>
 6 <tokens [2,263]>  2263 <tibble [1 × 5]>
 7 <tokens [2,270]>  2270 <tibble [1 × 5]>
 8 <tokens [2,187]>  2187 <tibble [1 × 5]>
 9 <tokens [2,234]>  2234 <tibble [1 × 5]>
10 <tokens [2,282]>  2282 <tibble [1 × 5]>
# … with 490 more rows

d %>% select(pos_codes, n_tok, pos_prop) %>% unnest(pos_prop)

# A tibble: 500 × 7
   pos_codes        n_tok p_ppss p_adj p_neg p_adv p_qual
   <list>           <dbl>  <dbl> <dbl> <dbl> <dbl>  <dbl>
 1 <tokens [2,242]>  2242   35.7  464. 13.4   205.   26.8
 2 <tokens [2,277]>  2277   39.5  457.  8.78  193.   13.2
 3 <tokens [2,275]>  2275   30.8  541. 13.2   163.   39.6
 4 <tokens [2,216]>  2216   18.1  731.  4.51  311.   99.3
 5 <tokens [2,244]>  2244   62.4  584.  0     196.   26.7
 6 <tokens [2,263]>  2263  128.   535.  8.84  163.   13.3
 7 <tokens [2,270]>  2270   48.5  604.  8.81  163.   26.4
 8 <tokens [2,187]>  2187   45.7  590.  4.57  306.   77.7
 9 <tokens [2,234]>  2234   44.8  389.  8.95  179.   22.4
10 <tokens [2,282]>  2282  101.   482.  4.38  184.   48.2
# … with 490 more rows
…
    0.60 

 p_qual 
    0.31 

    0.78 

The scores can be retrieved with $scores, and then turned into a tibble with as_tibble(). This automatically generates nice column names. We can also add a Component column that collects the lowercase name of the filename, which represents the Brown component (or register) the file belongs to.

scores <- d_fa$scores %>% as_tibble(rownames = "File") %>% 
  mutate(Component = re_retrieve_first(File, "[a-z]"))
scores

# A tibble: 500 × 6
   File   Factor1 Factor2 Factor3 Factor4 Component
   <chr>    <dbl>   <dbl>   <dbl>   <dbl> <chr>    
 1 a01    0.530     0.432   0.837  -1.09  a        
 2 a02   -0.148     0.543   1.63   -2.19  a        
 3 a03   -0.00890   0.230   0.581  -1.47  a        
 4 a04    1.65      0.532   1.00    0.357 a        
 5 a05   -0.709    -0.904  -0.169  -0.707 a        
 6 a06    0.677     1.28    0.917  -1.52  a        
 7 a07    1.02      0.920   1.18   -1.23  a        
 8 a08    0.115    -0.402   0.505  -0.122 a        
 9 a09   -0.0710    0.700   1.63   -2.47  a        
10 a10   -0.838    -0.734   0.956  -0.791 a        
# … with 490 more rows
…
